South Region - Richmond Times Dispatch
…
## # A tibble: 2,984 x 7
##    names      word               n total     tf   idf tf_idf
##    <chr>      <chr>          <int> <int>  <dbl> <dbl>  <dbl>
##  1 Article 6  migration         11   850 0.0286  2.30 0.0658
##  2 Article 10 building          18  1234 0.0267  2.30 0.0615
##  3 Article 8  woolf             12  1046 0.0233  2.30 0.0537
##  4 Article 1  li                 8   760 0.02    2.30 0.0461
##  5 Article 9  transportation    12   897 0.0253  1.61 0.0407
##  6 Article 5  salas              7   759 0.0175  2.30 0.0404
##  7 Article 3  canada             7   835 0.0171  2.30 0.0394
##  8 Article 10 rice              15  1234 0.0223  1.61 0.0358
##  9 Article 10 campus            10  1234 0.0148  2.30 0.0342
## 10 Article 10 students          10  1234 0.0148  2.30 0.0342
## # ... with 2,974 more rows
…
